8 Daten aufräumen mit tidyr | Programmieren und Statistik in R
…
Bevor wir Ihnen zeigen, wie Sie die obigen Datensätze so umformen können, dass sie den drei Prinzipien für aufgeräumte Daten folgen, möchten wir Ihnen noch die tibble vorstellen.

8.1 Tibbles

Die tibble ist eine vereinfachte Form eines Data Frames, die im tidyverse häufig verwendet wird. Wir laden hier einen weiteren Data Frame und formen ihn danach mittels as_tibble() um:

vdata <- read.table(file.path(url, "vdata.txt")) %>% 
  as_tibble()

Wenn wir den Namen der tibble jetzt in die Konsole eingeben, wird nicht wie beim Data Frame üblich der gesamte Datensatz angezeigt, sondern nur die ersten zehn Zeilen. Wir sehen außerdem, aus wie vielen Zeilen und Spalten die tibble besteht und welcher Objektklasse die einzelnen Spalten angehören:

vdata

## # A tibble: 2,982 × 10
##        X     Y    F1    F2   dur V     Tense Cons  Rate  Subj 
##    <dbl> <dbl> <int> <int> <dbl> <chr> <chr> <chr> <chr> <chr>
##  1  53.0  4.36   313   966 107.  %     -     P     a     bk   
##  2  53.6  3.65   322  2058  86.0 I     -     T     a     bk   
##  3  55.1 10.4    336  1186 123.  Y     -     K     a     bk   
##  4  53.1  4.75   693  2149 119.  E     -     T     a     bk   
##  5  52.7  6.46   269  2008 196.  Y     +     K     a     bk   
##  6  53.3  4.7    347   931  77.5 Y     -     P     a     bk   
##  7  54.4  3.6    705  1119 224.  A     +     P     a     bk   
##  8  51.2  7.38   248  2377 145.  I     +     P     a     bk   
##  9  54.6  2.4    385  1935 103   Y     -     T     a     bk   
## 10  58.4  9.17   288   595 244.  O     +     T     a     bk   
## # … with 2,972 more rows
…
Der Befehl pivot_longer() wandelt den Data Frame in das so genannte “lange Format” um. Am wichtigsten sind die folgenden drei Argumente:

cols: alle Spalten, die umwandelt werden sollen

values_to: der Name der neuen Spalte mit den Werten

names_to: der Name der neuen Spalte mit den ehemaligen Spaltennamen

Die Pivoting-Funktionen von tidyr sind sehr mächtig und können auch deutlich kompliziertere Operationen durchführen. Nehmen wir den Data Frame billboard, der automatisch mit dem tidyverse geladen wird und die Rankings der Billboard Charts aus dem Jahr 2000 enthält:

billboard

## # A tibble: 317 × 79
##    artist   track   date.entered   wk1   wk2   wk3   wk4   wk5   wk6   wk7   wk8
##    <chr>    <chr>   <date>       <dbl> <dbl> <dbl> <dbl> <dbl> <dbl> <dbl> <dbl>
##  1 2 Pac    Baby D… 2000-02-26      87    82    72    77    87    94    99    NA
##  2 2Ge+her  The Ha… 2000-09-02      91    87    92    NA    NA    NA    NA    NA
##  3 3 Doors… Krypto… 2000-04-08      81    70    68    67    66    57    54    53
##  4 3 Doors… Loser   2000-10-21      76    76    72    69    67    65    55    59
##  5 504 Boyz Wobble… 2000-04-15      57    34    25    17    17    31    36    49
##  6 98^0     Give M… 2000-08-19      51    39    34    26    26    19     2     2
##  7 A*Teens  Dancin… 2000-07-08      97    97    96    95   100    NA    NA    NA
##  8 Aaliyah  I Don'… 2000-01-29      84    62    51    41    38    35    35    38
##  9 Aaliyah  Try Ag… 2000-03-18      59    53    38    28    21    18    16    14
## 10 Adams, … Open M… 2000-08-26      76    76    74    69    68    67    61    58
## # … with 307 more rows, and 68 more variables: wk9 <dbl>, wk10 <dbl>,
## #   wk11 <dbl>, wk12 <dbl>, wk13 <dbl>, wk14 <dbl>, wk15 <dbl>, wk16 <dbl>,
## #   wk17 <dbl>, wk18 <dbl>, wk19 <dbl>, wk20 <dbl>, wk21 <dbl>, wk22 <dbl>,
## #   wk23 <dbl>, wk24 <dbl>, wk25 <dbl>, wk26 <dbl>, wk27 <dbl>, wk28 <dbl>,
## #   wk29 <dbl>, wk30 <dbl>, wk31 <dbl>, wk32 <dbl>, wk33 <dbl>, wk34 <dbl>,
## #   wk35 <dbl>, wk36 <dbl>, wk37 <dbl>, wk38 <dbl>, wk39 <dbl>, wk40 <dbl>,
## #   wk41 <dbl>, wk42 <dbl>, wk43 <dbl>, wk44 <dbl>, wk45 <dbl>, wk46 <dbl>, …

Auch hier ist es der Fall, dass die Spalten wk1, wk2, wk3 usw. eigentlich Levels oder Ausprägungen der Variable week sind. Wir möchten also eine Spalte erstellen, die uns die Woche angibt, und eine Spalte, die den Rank in den Billboard Charts enthält. Um dies zu erreichen, nehmen wir alle Spalten, die mit “wk” beginnen, packen die Spaltennamen in eine neue Spalte namens week und die Werte aus den Spalten in die neue Spalte rank. Das Präfix “wk” aus den alten Spaltennamen können wir durch das Argument names_prefix ablegen. Und zuletzt löschen wir alle NA-Werte (NA steht für not available) – es gibt z.B. keine Zeile für Woche 8 für 2Pac’s “Baby Don’t Cry,” weil der Song in der achten Kalenderwoche nicht in den Top 100 gerankt wurde.

billboard %>% 
  pivot_longer(cols = starts_with("wk"), 
               names_to = "week", 
               values_to = "rank",
               names_prefix = "wk",
               values_drop_na = TRUE)

## # A tibble: 5,307 × 5
##    artist  track                   date.entered week   rank
##    <chr>   <chr>                   <date>       <chr> <dbl>
##  1 2 Pac   Baby Don't Cry (Keep... 2000-02-26   1        87
##  2 2 Pac   Baby Don't Cry (Keep... 2000-02-26   2        82
##  3 2 Pac   Baby Don't Cry (Keep... 2000-02-26   3        72
##  4 2 Pac   Baby Don't Cry (Keep... 2000-02-26   4        77
##  5 2 Pac   Baby Don't Cry (Keep... 2000-02-26   5        87
##  6 2 Pac   Baby Don't Cry (Keep... 2000-02-26   6        94
##  7 2 Pac   Baby Don't Cry (Keep... 2000-02-26   7        99
##  8 2Ge+her The Hardest Part Of ... 2000-09-02   1        91
##  9 2Ge+her The Hardest Part Of ... 2000-09-02   2        87
## 10 2Ge+her The Hardest Part Of ... 2000-09-02   3        92
## # … with 5,297 more rows

Es gibt noch ein Gegenstück zu pivot_longer(), nämlich pivot_wider(). Diese Funktion wird deutlich seltener gebraucht, und bekommt vor allem die Argumente:

names_from: die Spalte, deren einzigartige Werte als neue Spalten benutzt werden sollen

values_from: die Spalte, deren Werte die neuen Spalten füllen sollen

Ein Beispiel dafür kann aus dem Data Frame us_rent_income abgeleitet werden, der ebenfalls mit dem tidyverse geladen wird:

us_rent_income

## # A tibble: 104 × 5
##    GEOID NAME       variable estimate   moe
##    <chr> <chr>      <chr>       <dbl> <dbl>
##  1 01    Alabama    income      24476   136
##  2 01    Alabama    rent          747     3
##  3 02    Alaska     income      32940   508
##  4 02    Alaska     rent         1200    13
##  5 04    Arizona    income      27517   148
##  6 04    Arizona    rent          972     4
##  7 05    Arkansas   income      23789   165
##  8 05    Arkansas   rent          709     5
##  9 06    California income      29454   109
## 10 06    California rent         1358     3
## # … with 94 more rows

Wir möchten eine Spalte income und eine Spalte rent aus den Levels der Spalte variable erstellen und die neuen Spalten dann mit den Werten aus estimate füllen.

us_rent_income %>% 
  pivot_wider(names_from = variable,
              values_from = estimate)

## # A tibble: 104 × 5
##    GEOID NAME         moe income  rent
##    <chr> <chr>      <dbl>  <dbl> <dbl>
##  1 01    Alabama      136  24476    NA
##  2 01    Alabama        3     NA   747
##  3 02    Alaska       508  32940    NA
##  4 02    Alaska        13     NA  1200
##  5 04    Arizona      148  27517    NA
##  6 04    Arizona        4     NA   972
##  7 05    Arkansas     165  23789    NA
##  8 05    Arkansas       5     NA   709
##  9 06    California   109  29454    NA
## 10 06    California     3     NA  1358
## # … with 94 more rows

Im Ergebnis sehen wir jetzt aber einige NA-Werte. Diese können wir zum Beispiel durch Nullen ersetzen, indem wir zusätzlich das Argument values_fill verwenden.

us_rent_income %>% 
  pivot_wider(names_from = variable,
              values_from = estimate,
              values_fill = 0)

## # A tibble: 104 × 5
##    GEOID NAME         moe income  rent
##    <chr> <chr>      <dbl>  <dbl> <dbl>
##  1 01    Alabama      136  24476     0
##  2 01    Alabama        3      0   747
##  3 02    Alaska       508  32940     0
##  4 02    Alaska        13      0  1200
##  5 04    Arizona      148  27517     0
##  6 04    Arizona        4      0   972
##  7 05    Arkansas     165  23789     0
##  8 05    Arkansas       5      0   709
##  9 06    California   109  29454     0
## 10 06    California     3      0  1358
## # … with 94 more rows

Auch hier gibt es wieder komplexere Operationen, die pivot_wider() durchführen kann. Die beiden Hauptargumente names_from und values_from können jeweils auch mehr als eine Spalte angegeben bekommen. pivot_wider() erstellt dann so viele neue Spalten, wie es Kombinationen zwischen den Levels aus den originalen Spalten bzw. Spaltennamen gibt. Hier geben wir zum Beispiel die Spalten estimate und moe bei values_from an und erhalten so in Kombination mit den zwei Levels aus variable vier neue Spalten:

us_rent_income %>% 
  pivot_wider(names_from = variable,
              values_from = c(estimate, moe))

## # A tibble: 52 × 6
##    GEOID NAME                 estimate_income estimate_rent moe_income moe_rent
##    <chr> <chr>                          <dbl>         <dbl>      <dbl>    <dbl>
##  1 01    Alabama                        24476           747        136        3
##  2 02    Alaska                         32940          1200        508       13
##  3 04    Arizona                        27517           972        148        4
##  4 05    Arkansas                       23789           709        165        5
##  5 06    California                     29454          1358        109        3
##  6 08    Colorado                       32401          1125        109        5
##  7 09    Connecticut                    35326          1123        195        5
##  8 10    Delaware                       31560          1076        247       10
##  9 11    District of Columbia           43198          1424        681       17
## 10 12    Florida                        25952          1077         70        3
## # … with 42 more rows

Zuletzt noch ein phonetisches Beispiel: Wir möchten aus den Levels der Spalte Bet (Betonung) des Data Frames asp neue Spalten machen und diese mit den Dauerwerten d füllen. Der Code wirft aber eine Warnmeldung, weil es mehrere Werte pro Zelle gibt in den neuen Spalten gibt, wie Sie an der seltsamen Schreibweise sehen können:

asp %>%
  pivot_wider(names_from = Bet,
              values_from = d)

## Warning: Values are not uniquely identified; output will contain list-cols.
## * Use `values_fn = list` to suppress this warning.
## * Use `values_fn = length` to identify where the duplicates arise
## * Use `values_fn = {summary_fun}` to summarise duplicates

## # A tibble: 1,723 × 5
##    Wort             Vpn   Kons  un        be       
##    <chr>            <chr> <chr> <list>    <list>   
##  1 Fruehlingswetter k01   t     <dbl [2]> <NULL>   
##  2 Gestern          k01   t     <dbl [2]> <NULL>   
##  3 Montag           k01   t     <dbl [2]> <NULL>   
##  4 Vater            k01   t     <dbl [4]> <NULL>   
##  5 Tisch            k01   t     <NULL>    <dbl [3]>
##  6 Mutter           k01   t     <dbl [2]> <NULL>   
##  7 konnte           k01   k     <dbl [2]> <NULL>   
##  8 Kaffee           k01   k     <NULL>    <dbl [3]>
##  9 Tassen           k01   t     <NULL>    <dbl [2]>
## 10 Teller           k01   t     <NULL>    <dbl [2]>
## # … with 1,713 more rows

Netterweise gibt uns die Warnmeldung auch sofort drei Lösungswege an: Wir können das Argument values_fn benutzen, um die Warnung zu unterdrücken, uns anzeigen zu lassen wie viele Werte pro Zelle es gibt, oder mit einer zusammenfassenden Funktion die Werte umformen. Letzteres scheint hier sinnvoll zu sein: Dort, wo es mehrere Werte pro Zelle gibt, lassen wir mit mean() den Durchschnitt berechnen:

asp %>%
  pivot_wider(names_from = Bet,
              values_from = d,
              values_fn = mean)

## # A tibble: 1,723 × 5
##    Wort             Vpn   Kons     un    be
##    <chr>            <chr> <chr> <dbl> <dbl>
##  1 Fruehlingswetter k01   t      19.1  NA  
##  2 Gestern          k01   t      22.4  NA  
##  3 Montag           k01   t      22.3  NA  
##  4 Vater            k01   t      25.4  NA  
##  5 Tisch            k01   t      NA    55.8
##  6 Mutter           k01   t      19.3  NA  
##  7 konnte           k01   k      43.9  NA  
##  8 Kaffee           k01   k      NA    56.1
##  9 Tassen           k01   t      NA    49.4
## 10 Teller           k01   t      NA    59.4
## # … with 1,713 more rows
…
Die ersten zwei Argumente sind eigentlich klar: col ist die Spalte Context, und bei into geben wir die zwei gewünschten Spaltennamen Left und Right an. Für sep gibt es zwei Optionen: Die erste Möglichkeit ist mittels einer Zahl, die den Index angibt, ab dem getrennt werden soll: wenn z.B. die ersten zwei Buchstaben immer in die eine und der Rest in die zweite Spalte geschrieben werden soll, nutzen wir sep = 2. Wenn wir uns aber die unterschiedlichen Werte in Context anschauen, ist das hier nicht sinnvoll:

levels(vcv$Context)

## NULL

Der linke Kontext kann aus einem oder zwei Buchstaben bestehen; außerdem ist da noch ein Punkt, der dann entweder in den linken oder rechten Kontext übernommen werden würde, wie man hier sieht:

vcv %>% 
  separate(col = Context, 
           into = c("Left", "Right"), 
           sep = 1)

## # A tibble: 810 × 6
##       RT Subject Vowel Lang  Left  Right
##    <dbl> <chr>   <chr> <chr> <chr> <chr>
##  1  648. S209    a     AE    f     .h   
##  2  617  S209    a     AE    f     .sh  
##  3  728. S209    a     AE    f     .sh  
##  4  629  S209    a     AE    f     .th  
##  5  688. S209    a     AE    f     .th  
##  6  602. S209    a     AE    s     .h   
##  7  632. S209    a     AE    s     .sh  
##  8  574  S209    a     AE    s     .th  
##  9  719  S209    a     AE    s     .h   
## 10  569  S209    a     AE    s     .th  
## # … with 800 more rows

vcv %>% 
  separate(col = Context, 
           into = c("Left", "Right"), 
           sep = 2)

## # A tibble: 810 × 6
##       RT Subject Vowel Lang  Left  Right
##    <dbl> <chr>   <chr> <chr> <chr> <chr>
##  1  648. S209    a     AE    f.    h    
##  2  617  S209    a     AE    f.    sh   
##  3  728. S209    a     AE    f.    sh   
##  4  629  S209    a     AE    f.    th   
##  5  688. S209    a     AE    f.    th   
##  6  602. S209    a     AE    s.    h    
##  7  632. S209    a     AE    s.    sh   
##  8  574  S209    a     AE    s.    th   
##  9  719  S209    a     AE    s.    h    
## 10  569  S209    a     AE    s.    th   
## # … with 800 more rows

Die andere Möglichkeit ist eine regular expression (auch: regulärer Ausdruck oder RegEx). Dafür gibt man ein Muster (pattern) an, nach dem die Trennung in zwei Spalten erfolgen soll. Das würde für unser Beispiel gut passen, weil wir immer am Punkt trennen wollen. Der Punkt steht aber leider bei den regulären Ausdrücken für ein (und zwar egal welches) Schriftzeichen. Wenn wir den Punkt als Punkt verwenden wollen müssen wir ihn durch das Escape-Zeichen, den doppelten Backslash, schützen.

vcv %>% 
  separate(col = Context, 
           into = c("Left", "Right"), 
           sep = "\\.")

## # A tibble: 810 × 6
##       RT Subject Vowel Lang  Left  Right
##    <dbl> <chr>   <chr> <chr> <chr> <chr>
##  1  648. S209    a     AE    f     h    
##  2  617  S209    a     AE    f     sh   
##  3  728. S209    a     AE    f     sh   
##  4  629  S209    a     AE    f     th   
##  5  688. S209    a     AE    f     th   
##  6  602. S209    a     AE    s     h    
##  7  632. S209    a     AE    s     sh   
##  8  574  S209    a     AE    s     th   
##  9  719  S209    a     AE    s     h    
## 10  569  S209    a     AE    s     th   
## # … with 800 more rows
…
