8 Tidying Data with tidyr | Programming in R: An Introduction for Phoneticians
…
Before we show you how to restructure the datasets above such that they follow the three principles, we want to introduce the tibble.

8.1 Tibbles

The *tibble is a simpler version of a data frame which is often used in the tidyverse. Let’s load another data frame and transform it into a tibble using as_tibble():

vdata <- read.table(file.path(url, "vdata.txt")) %>% 
  as_tibble()

When we now enter the name of that tibble, vdata, in the console, we don’t see the full dataset as usual, but instead only the first ten observations. In addition, we can see how many rows and columns the tibble consists of and which object classes the columns have:

vdata

## # A tibble: 2,982 × 10
##        X     Y    F1    F2   dur V     Tense Cons 
##    <dbl> <dbl> <int> <int> <dbl> <chr> <chr> <chr>
##  1  53.0  4.36   313   966 107.  %     -     P    
##  2  53.6  3.65   322  2058  86.0 I     -     T    
##  3  55.1 10.4    336  1186 123.  Y     -     K    
##  4  53.1  4.75   693  2149 119.  E     -     T    
##  5  52.7  6.46   269  2008 196.  Y     +     K    
##  6  53.3  4.7    347   931  77.5 Y     -     P    
##  7  54.4  3.6    705  1119 224.  A     +     P    
##  8  51.2  7.38   248  2377 145.  I     +     P    
##  9  54.6  2.4    385  1935 103   Y     -     T    
## 10  58.4  9.17   288   595 244.  O     +     T    
## # ℹ 2,972 more rows
## # ℹ 2 more variables: Rate <chr>, Subj <chr>
…
The command pivot_longer() transforms the data into the so called “long format”. The three most important arguments are:

cols: all columns that shall be transformed

values_to: the name of the new column with the values

names_to: the name of the new column that will contain the original column names

The pivoting functions from tidyr are very powerful and you can do really complicated operations with them. Let’s take the data frame billboard which is loaded together with the tidyverse and contains the Billboard Chart rankings from the year 2000:

billboard

## # A tibble: 317 × 79
##    artist    track date.entered   wk1   wk2   wk3   wk4
##    <chr>     <chr> <date>       <dbl> <dbl> <dbl> <dbl>
##  1 2 Pac     Baby… 2000-02-26      87    82    72    77
##  2 2Ge+her   The … 2000-09-02      91    87    92    NA
##  3 3 Doors … Kryp… 2000-04-08      81    70    68    67
##  4 3 Doors … Loser 2000-10-21      76    76    72    69
##  5 504 Boyz  Wobb… 2000-04-15      57    34    25    17
##  6 98^0      Give… 2000-08-19      51    39    34    26
##  7 A*Teens   Danc… 2000-07-08      97    97    96    95
##  8 Aaliyah   I Do… 2000-01-29      84    62    51    41
##  9 Aaliyah   Try … 2000-03-18      59    53    38    28
## 10 Adams, Y… Open… 2000-08-26      76    76    74    69
## # ℹ 307 more rows
## # ℹ 72 more variables: wk5 <dbl>, wk6 <dbl>,
## #   wk7 <dbl>, wk8 <dbl>, wk9 <dbl>, wk10 <dbl>,
## #   wk11 <dbl>, wk12 <dbl>, wk13 <dbl>, wk14 <dbl>,
## #   wk15 <dbl>, wk16 <dbl>, wk17 <dbl>, wk18 <dbl>,
## #   wk19 <dbl>, wk20 <dbl>, wk21 <dbl>, wk22 <dbl>,
## #   wk23 <dbl>, wk24 <dbl>, wk25 <dbl>, wk26 <dbl>, …

Similarly to avokal, billboard presents another case in which some columns (wk1, wk2, wk3, etc.) are actually values of one variable (week). So we’d like to create one column which contains the week (1, 2, 3, etc.) and one column that contains the Billboard rank. To achieve this, we take all colums whose names start with “wk”, put these names in a new column called week, and the values from the original columns into a new column called rank. The prefex “wk” from the old column names can be dropped by means of the argument names_prefix. Lastly, we remove all NA (not available) values – for instance, there is no row for week 8 of 2Pac’s “Baby Don’t Cry” because the song didn’t rank in the top 100 that week.

billboard %>% 
  pivot_longer(cols = starts_with("wk"), 
               names_to = "week", 
               values_to = "rank",
               names_prefix = "wk",
               values_drop_na = TRUE)

## # A tibble: 5,307 × 5
##    artist  track               date.entered week   rank
##    <chr>   <chr>               <date>       <chr> <dbl>
##  1 2 Pac   Baby Don't Cry (Ke… 2000-02-26   1        87
##  2 2 Pac   Baby Don't Cry (Ke… 2000-02-26   2        82
##  3 2 Pac   Baby Don't Cry (Ke… 2000-02-26   3        72
##  4 2 Pac   Baby Don't Cry (Ke… 2000-02-26   4        77
##  5 2 Pac   Baby Don't Cry (Ke… 2000-02-26   5        87
##  6 2 Pac   Baby Don't Cry (Ke… 2000-02-26   6        94
##  7 2 Pac   Baby Don't Cry (Ke… 2000-02-26   7        99
##  8 2Ge+her The Hardest Part O… 2000-09-02   1        91
##  9 2Ge+her The Hardest Part O… 2000-09-02   2        87
## 10 2Ge+her The Hardest Part O… 2000-09-02   3        92
## # ℹ 5,297 more rows

The counterpart to pivot_longer() is pivot_wider(). This function is used much less frequently and takes as main arguments:

names_from: the column containing the unique values that shall be used as new column names

values_from: the column containing the values to fill the new columns

A use case for pivot_wider() is given by the data frame us_rent_income which is loaded withe the tidyverse (much like billboard and a few others):

us_rent_income

## # A tibble: 104 × 5
##    GEOID NAME       variable estimate   moe
##    <chr> <chr>      <chr>       <dbl> <dbl>
##  1 01    Alabama    income      24476   136
##  2 01    Alabama    rent          747     3
##  3 02    Alaska     income      32940   508
##  4 02    Alaska     rent         1200    13
##  5 04    Arizona    income      27517   148
##  6 04    Arizona    rent          972     4
##  7 05    Arkansas   income      23789   165
##  8 05    Arkansas   rent          709     5
##  9 06    California income      29454   109
## 10 06    California rent         1358     3
## # ℹ 94 more rows

We want to create a column income and a column rent from the levels of the column variable and fill the two new columns with the values from estimate.

us_rent_income %>% 
  pivot_wider(names_from = variable,
              values_from = estimate)

## # A tibble: 104 × 5
##    GEOID NAME         moe income  rent
##    <chr> <chr>      <dbl>  <dbl> <dbl>
##  1 01    Alabama      136  24476    NA
##  2 01    Alabama        3     NA   747
##  3 02    Alaska       508  32940    NA
##  4 02    Alaska        13     NA  1200
##  5 04    Arizona      148  27517    NA
##  6 04    Arizona        4     NA   972
##  7 05    Arkansas     165  23789    NA
##  8 05    Arkansas       5     NA   709
##  9 06    California   109  29454    NA
## 10 06    California     3     NA  1358
## # ℹ 94 more rows

The results contains a few NA values. These can be replaced by zeros by means of the argument values_fill.

us_rent_income %>% 
  pivot_wider(names_from = variable,
              values_from = estimate,
              values_fill = 0)

## # A tibble: 104 × 5
##    GEOID NAME         moe income  rent
##    <chr> <chr>      <dbl>  <dbl> <dbl>
##  1 01    Alabama      136  24476     0
##  2 01    Alabama        3      0   747
##  3 02    Alaska       508  32940     0
##  4 02    Alaska        13      0  1200
##  5 04    Arizona      148  27517     0
##  6 04    Arizona        4      0   972
##  7 05    Arkansas     165  23789     0
##  8 05    Arkansas       5      0   709
##  9 06    California   109  29454     0
## 10 06    California     3      0  1358
## # ℹ 94 more rows

Again, pivot_wider() can conduct some very complex operations. The main arguments names_from and values_from can actually take more than one column. pivot_wider() then creates as many new columns as there are combinations of levels from the original columns. Here we put in the columns estimate and moe for values_from. Thus, we receive four new columns:

us_rent_income %>% 
  pivot_wider(names_from = variable,
              values_from = c(estimate, moe))

## # A tibble: 52 × 6
##    GEOID NAME  estimate_income estimate_rent moe_income
##    <chr> <chr>           <dbl>         <dbl>      <dbl>
##  1 01    Alab…           24476           747        136
##  2 02    Alas…           32940          1200        508
##  3 04    Ariz…           27517           972        148
##  4 05    Arka…           23789           709        165
##  5 06    Cali…           29454          1358        109
##  6 08    Colo…           32401          1125        109
##  7 09    Conn…           35326          1123        195
##  8 10    Dela…           31560          1076        247
##  9 11    Dist…           43198          1424        681
## 10 12    Flor…           25952          1077         70
## # ℹ 42 more rows
## # ℹ 1 more variable: moe_rent <dbl>
…
## Warning: Values from `d` are not uniquely identified; output
## will contain list-cols.
## • Use `values_fn = list` to suppress this warning.
## • Use `values_fn = {summary_fun}` to summarise
##   duplicates.
## • Use the following dplyr code to identify duplicates.
##   {data} |>
##   dplyr::summarise(n = dplyr::n(), .by = c(Wort, Vpn,
##   Kons, Bet)) |>
##   dplyr::filter(n > 1L)

## # A tibble: 1,723 × 5
##    Wort             Vpn   Kons  un        be       
##    <chr>            <chr> <chr> <list>    <list>   
##  1 Fruehlingswetter k01   t     <dbl [2]> <NULL>   
##  2 Gestern          k01   t     <dbl [2]> <NULL>   
##  3 Montag           k01   t     <dbl [2]> <NULL>   
##  4 Vater            k01   t     <dbl [4]> <NULL>   
##  5 Tisch            k01   t     <NULL>    <dbl [3]>
##  6 Mutter           k01   t     <dbl [2]> <NULL>   
##  7 konnte           k01   k     <dbl [2]> <NULL>   
##  8 Kaffee           k01   k     <NULL>    <dbl [3]>
##  9 Tassen           k01   t     <NULL>    <dbl [2]>
## 10 Teller           k01   t     <NULL>    <dbl [2]>
## # ℹ 1,713 more rows

The warning also kindly offers three solutions to this problem: We can use the argument values_fn to suppress the warning, show how many values per cell there are, or summarise the values using one of the summarising functions. The last solution seems to make sense here: wherever there are several values per cell, we compute their mean with mean():

asp %>%
  pivot_wider(names_from = Bet,
              values_from = d,
              values_fn = mean)

## # A tibble: 1,723 × 5
##    Wort             Vpn   Kons     un    be
##    <chr>            <chr> <chr> <dbl> <dbl>
##  1 Fruehlingswetter k01   t      19.1  NA  
##  2 Gestern          k01   t      22.4  NA  
##  3 Montag           k01   t      22.3  NA  
##  4 Vater            k01   t      25.4  NA  
##  5 Tisch            k01   t      NA    55.8
##  6 Mutter           k01   t      19.3  NA  
##  7 konnte           k01   k      43.9  NA  
##  8 Kaffee           k01   k      NA    56.1
##  9 Tassen           k01   t      NA    49.4
## 10 Teller           k01   t      NA    59.4
## # ℹ 1,713 more rows
…
The first two arguments are pretty clear in our case: col is the column Context and into takes our desired column names Left and Right. For the third argument sep, on the other hand, there are two options. The first is to indicate the index at which to separate the string, e.g. put the first two letters in one and the rest of the letters in the second new column. To do this, we can use sep = 2. However, when we look at the distinct values in Context, this wouldn’t be our desired result:

levels(vcv$Context)

## NULL

This is because the left context can consist of one or two letters; and also, there is a dot which would then be inherited by the left or right context, as you can see here:

vcv %>% 
  separate(col = Context, 
           into = c("Left", "Right"), 
           sep = 1)

## # A tibble: 810 × 6
##       RT Subject Vowel Lang  Left  Right
##    <dbl> <chr>   <chr> <chr> <chr> <chr>
##  1  648. S209    a     AE    f     .h   
##  2  617  S209    a     AE    f     .sh  
##  3  728. S209    a     AE    f     .sh  
##  4  629  S209    a     AE    f     .th  
##  5  688. S209    a     AE    f     .th  
##  6  602. S209    a     AE    s     .h   
##  7  632. S209    a     AE    s     .sh  
##  8  574  S209    a     AE    s     .th  
##  9  719  S209    a     AE    s     .h   
## 10  569  S209    a     AE    s     .th  
## # ℹ 800 more rows

vcv %>% 
  separate(col = Context, 
           into = c("Left", "Right"), 
           sep = 2)

## # A tibble: 810 × 6
##       RT Subject Vowel Lang  Left  Right
##    <dbl> <chr>   <chr> <chr> <chr> <chr>
##  1  648. S209    a     AE    f.    h    
##  2  617  S209    a     AE    f.    sh   
##  3  728. S209    a     AE    f.    sh   
##  4  629  S209    a     AE    f.    th   
##  5  688. S209    a     AE    f.    th   
##  6  602. S209    a     AE    s.    h    
##  7  632. S209    a     AE    s.    sh   
##  8  574  S209    a     AE    s.    th   
##  9  719  S209    a     AE    s.    h    
## 10  569  S209    a     AE    s.    th   
## # ℹ 800 more rows

The second option is a regular expression (also called regex). That means that we give the function a pattern that tells it how to separate the contents of Context. This would work well here because we would like to separate the contexts at the dot. Unfortunately, the dot is a marker for one (random) character in regular expressions. So if we want to indicate in our pattern that we actually mean a dot (and not any random character), we need to protect the dot by means of the escape sign, a double backslash.

vcv %>% 
  separate(col = Context, 
           into = c("Left", "Right"), 
           sep = "\\.")

## # A tibble: 810 × 6
##       RT Subject Vowel Lang  Left  Right
##    <dbl> <chr>   <chr> <chr> <chr> <chr>
##  1  648. S209    a     AE    f     h    
##  2  617  S209    a     AE    f     sh   
##  3  728. S209    a     AE    f     sh   
##  4  629  S209    a     AE    f     th   
##  5  688. S209    a     AE    f     th   
##  6  602. S209    a     AE    s     h    
##  7  632. S209    a     AE    s     sh   
##  8  574  S209    a     AE    s     th   
##  9  719  S209    a     AE    s     h    
## 10  569  S209    a     AE    s     th   
## # ℹ 800 more rows
…
