12 Einfache lineare Regression | Programmieren und Statistik in R
…
Wie Sie vielleicht bemerkt haben, habe ich die Funktion augment() benutzt, um die Ergebnisse des linearen Modells in ggplot2 nutzen zu können. Diese Funktion stammt aus dem Paket broom, das wir anfangs geladen haben und das noch zwei weitere hilfreiche Funktionen bereitstellt: tidy() und glance(). Das Ergebnis dieser Funktionen ist immer eine tibble, also ein Objekt, das wir easy weiterverarbeiten können (im Gegensatz zu den seltsamen Regressionsobjekten):

queen.lm %>% class

## [1] "lm"

queen.lm %>% augment() %>% class()

## [1] "tbl_df"     "tbl"        "data.frame"

Schauen wir uns zuerst an, was augment() macht:

queen.lm %>% augment()

## # A tibble: 30 × 8
##       f0 Alter .fitted .resid   .hat .sigma  .cooksd .std.resid
##    <dbl> <int>   <dbl>  <dbl>  <dbl>  <dbl>    <dbl>      <dbl>
##  1  297.    26    260.  36.3  0.0946   10.5 0.482         3.04 
##  2  283.    28    258.  25.2  0.0845   11.7 0.202         2.09 
##  3  260.    29    257.   2.74 0.0798   12.8 0.00225       0.228
##  4  258.    30    256.   1.58 0.0753   12.8 0.000694      0.131
##  5  262.    31    255.   6.63 0.0710   12.7 0.0115        0.548
##  6  260.    32    254.   5.81 0.0670   12.7 0.00826       0.480
##  7  249.    33    253.  -3.82 0.0632   12.8 0.00334      -0.315
##  8  257.    34    252.   5.28 0.0596   12.7 0.00597       0.434
##  9  243.    35    251.  -7.60 0.0563   12.7 0.0116       -0.624
## 10  236.    37    248. -12.9  0.0503   12.5 0.0297       -1.06 
## # … with 20 more rows
…
