9 Joining mit dplyr | Programmieren und Statistik in R
…
9.1 Mutating Joins

Wie auch bei mutate() werden einem Data Frame x durch einen mutating join weitere Spalten hinzugefügt. Im Gegensatz zu mutate() stammen die neuen Spalten aber aus einem anderen Data Frame y. In beiden Data Frames x und y muss es mindestens eine Spalte geben, die einen identifier oder key enthält, über den die Tabellen verbunden werden können.

9.1.1 Inner Join

Die einfachste Form des mutating join ist der sogenannte inner join, der mittels der Funktion inner_join() durchgeführt wird. Die Funktion bekommt als Argumente zwei Data Frames x und y und den Identifier im Argument by. Das Ergebnis eines inner join enthält alle Spalten von x und y sowie alle Zeilen, für die es einen Match in beiden Data Frames gibt. Fehlende Werte (NA) tauchen nicht im Ergebnis eines inner join auf, daher ist hier immer Vorsicht angebracht.

Als einfaches Beispiel verwenden wir hier eine Tabelle mit Grundfrequenzwerten von zehn Sprechern und eine Tabelle mit Metadaten über die zehn Sprecher:

measures <- tibble(subject = rep(paste0("s", 1:10), each = 10),
                   F0 = rnorm(100, 120, 15))
measures

## # A tibble: 100 × 2
##    subject    F0
##    <chr>   <dbl>
##  1 s1       121.
##  2 s1       109.
##  3 s1       120.
##  4 s1       140.
##  5 s1       114.
##  6 s1       112.
##  7 s1       131.
##  8 s1       114.
##  9 s1       114.
## 10 s1       119.
## # … with 90 more rows
…
Beide tibbles haben die Spalte subject, die wir als key bei unserem inner join benutzen werden:

inner_join(x = measures, y = meta, by = "subject")

## # A tibble: 100 × 3
##    subject    F0 age  
##    <chr>   <dbl> <chr>
##  1 s1       121. old  
##  2 s1       109. old  
##  3 s1       120. old  
##  4 s1       140. old  
##  5 s1       114. old  
##  6 s1       112. old  
##  7 s1       131. old  
##  8 s1       114. old  
##  9 s1       114. old  
## 10 s1       119. old  
## # … with 90 more rows

Es kann vorkommen, dass die key-Spalte in den zwei Data Frames unterschiedlich benannt ist. In diesem Fall sagen wir der Funktion mittels by = c("a"="b"), dass die Spalte a aus dem Data Frame x mit der Spalte b aus dem Data Frame y gematched werden soll (das gilt für alle join Funktionen):

measures %<>% rename(Vpn = subject)
inner_join(x = measures, y = meta, by = c("Vpn"="subject"))

## # A tibble: 100 × 3
##    Vpn      F0 age  
##    <chr> <dbl> <chr>
##  1 s1     121. old  
##  2 s1     109. old  
##  3 s1     120. old  
##  4 s1     140. old  
##  5 s1     114. old  
##  6 s1     112. old  
##  7 s1     131. old  
##  8 s1     114. old  
##  9 s1     114. old  
## 10 s1     119. old  
## # … with 90 more rows

measures %<>% rename(subject = Vpn)

In diesem Beispiel werden bislang immer alle Zeilen von measures zurückgegeben und alle Spalten beider Data Frames. Das liegt daran, dass es sowohl in measures als auch in meta Informationen zu denselben zehn Probanden gibt. Wenn wir in einem der Data Frames mehr oder weniger Informationen haben, werden plötzlich Zeilen weggelassen.

# Messwerte von 20 statt 10 Sprechern:
measures <- tibble(subject = rep(paste0("s", 1:20), each = 10),
                   F0 = rnorm(200, 120, 15))
inner_join(x = measures, y = meta, by = "subject")

## # A tibble: 100 × 3
##    subject    F0 age  
##    <chr>   <dbl> <chr>
##  1 s1      124.  old  
##  2 s1      131.  old  
##  3 s1      146.  old  
##  4 s1      111.  old  
##  5 s1      150.  old  
##  6 s1      137.  old  
##  7 s1       83.2 old  
##  8 s1      134.  old  
##  9 s1      113.  old  
## 10 s1      104.  old  
## # … with 90 more rows
…
Dieses Ergebnis besteht aus 200 Zeilen (wenn wir nicht slice() darauf anwenden) – als wir oben die Funktion inner_join() auf die exakt selben tibbles ausgeführt haben, hatte das Ergebnis nur 100 Zeilen. Das liegt daran, dass full_join() die 100 Zeilen mit den Messwerten der Sprecher 11 bis 20 beibehalten hat, während inner_join() diese Zeilen gelöscht hat, weil es für diese Sprecher keine Informationen aus meta zu holen gab. Beim Ergebnis des full_join() finden sich deshalb NA-Werte in der angehängten Spalte age für die Sprecher 11 bis 20.

Wenn Sie nicht alle Zeilen aus beiden Data Frames übernehmen wollen, stehen Ihnen die Funktionen left_join() und right_join() zur Verfügung. Beim left_join() werden alle Zeilen aus Data Frame x und beim right_join() alle Zeilen aus dem Data Frame y übernommen. In unserem Beispiel wollen wir alle Zeilen aus measures erhalten und nur die Altersinformation aus meta hinzufügen:

left_join(x = measures, y = meta, by = "subject")

## # A tibble: 200 × 3
##    subject    F0 age  
##    <chr>   <dbl> <chr>
##  1 s1      124.  old  
##  2 s1      131.  old  
##  3 s1      146.  old  
##  4 s1      111.  old  
##  5 s1      150.  old  
##  6 s1      137.  old  
##  7 s1       83.2 old  
##  8 s1      134.  old  
##  9 s1      113.  old  
## 10 s1      104.  old  
## # … with 190 more rows

right_join(x = meta, y = measures, by = "subject")

## # A tibble: 200 × 3
##    subject age      F0
##    <chr>   <chr> <dbl>
##  1 s1      old   124. 
##  2 s1      old   131. 
##  3 s1      old   146. 
##  4 s1      old   111. 
##  5 s1      old   150. 
##  6 s1      old   137. 
##  7 s1      old    83.2
##  8 s1      old   134. 
##  9 s1      old   113. 
## 10 s1      old   104. 
## # … with 190 more rows

9.2 Filtering Joins

Die zweite Art von joins in R sind die sogenannten filtering joins, die keine neuen Spalten hinzufügen, sondern nur ausgewählte Zeilen zurückgeben. Hierfür gibt es im tidyverse zwei Funktionen:

semi_join(): Gibt alle Beobachtungen des Data Frames x zurück, für die es einen Match im Data Frame y gibt

anti_join(): Gibt alle Beobachtungen des Data Frames x zurück, für die es keinen Match im Data Frame y gibt

Wir werden diese beiden Funktionen anhand der folgenden Data Frames demonstrieren:

vcv %<>% as_tibble()
vcv

## # A tibble: 810 × 7
##       RT Subject Vowel Lang  Left  Right Context
##    <dbl> <chr>   <chr> <chr> <chr> <chr> <chr>  
##  1  648. S209    a     AE    f     h     f.h    
##  2  617  S209    a     AE    f     sh    f.sh   
##  3  728. S209    a     AE    f     sh    f.sh   
##  4  629  S209    a     AE    f     th    f.th   
##  5  688. S209    a     AE    f     th    f.th   
##  6  602. S209    a     AE    s     h     s.h    
##  7  632. S209    a     AE    s     sh    s.sh   
##  8  574  S209    a     AE    s     th    s.th   
##  9  719  S209    a     AE    s     h     s.h    
## 10  569  S209    a     AE    s     th    s.th   
## # … with 800 more rows
…
## # A tibble: 5 × 3
##   Subject Vowel mean_rt
##   <chr>   <chr>   <dbl>
## 1 S502    i       1173.
## 2 S502    u       1076.
## 3 S502    a       1000.
## 4 S508    u        816.
## 5 S508    i        780.

Der Data Frame vcv_summary enthält also die fünf höchsten durchschnittlichen Reaktionszeiten und welchem Sprecher und Vokal diese Werte zugeordnet sind. Wenn wir jetzt herausfinden wollen, aus welchen Beobachtungen in vcv diese Mittelwerte berechnet wurden, nutzen wir den semi join. Genau genommen möchten wir alle Zeilen aus vcv zurückbekommen, für die es in vcv_summary einen Match bezüglich der Spalten Subject und Vowel gibt.

semi_join(x = vcv, y = vcv_summary, by = c("Subject", "Vowel"))

## # A tibble: 75 × 7
##       RT Subject Vowel Lang  Left  Right Context
##    <dbl> <chr>   <chr> <chr> <chr> <chr> <chr>  
##  1 1120. S502    a     D     f     h     f.h    
##  2 1066. S502    a     D     f     sh    f.sh   
##  3  848  S502    a     D     f     sh    f.sh   
##  4 1148. S502    a     D     f     th    f.th   
##  5 1130  S502    a     D     f     th    f.th   
##  6  938  S502    a     D     s     h     s.h    
##  7 1124. S502    a     D     s     sh    s.sh   
##  8  981  S502    a     D     s     th    s.th   
##  9  774  S502    a     D     s     h     s.h    
## 10 1104  S502    a     D     s     th    s.th   
## # … with 65 more rows
…
## # A tibble: 5 × 2
##   Subject Vowel
##   <chr>   <chr>
## 1 S502    a    
## 2 S502    i    
## 3 S502    u    
## 4 S508    i    
## 5 S508    u

Mit dem anti join erhalten wir hingegen alle Beobachtungen, aus denen nicht die gemittelten Reaktionszeiten berechnet wurden, oder mit anderen Worten: alle Beobachtungen aus vcv, für die es bzgl. Subject und Vowel keinen Match in vcv_summary gibt.

anti_join(x = vcv, y = vcv_summary, by = c("Subject", "Vowel"))

## # A tibble: 735 × 7
##       RT Subject Vowel Lang  Left  Right Context
##    <dbl> <chr>   <chr> <chr> <chr> <chr> <chr>  
##  1  648. S209    a     AE    f     h     f.h    
##  2  617  S209    a     AE    f     sh    f.sh   
##  3  728. S209    a     AE    f     sh    f.sh   
##  4  629  S209    a     AE    f     th    f.th   
##  5  688. S209    a     AE    f     th    f.th   
##  6  602. S209    a     AE    s     h     s.h    
##  7  632. S209    a     AE    s     sh    s.sh   
##  8  574  S209    a     AE    s     th    s.th   
##  9  719  S209    a     AE    s     h     s.h    
## 10  569  S209    a     AE    s     th    s.th   
## # … with 725 more rows

Anti joins eignen sich unter anderem zur Fehlersuche in den eigenen Daten. Nehmen wir nochmal unsere Beispieldaten von vorhin, measures mit Messwerten für 20 Sprecher, und meta mit Metadaten für nur 10 dieser Sprecher. Wenn wir den anti join hier anwenden, finden wir sofort heraus, für welche Zeilen in measures es keinen Match in meta gibt, für welche Sprecher es also keine Metadaten gibt.

anti_join(x = measures, y = meta, by = "subject")

## # A tibble: 100 × 2
##    subject    F0
##    <chr>   <dbl>
##  1 s11     118. 
##  2 s11     115. 
##  3 s11     122. 
##  4 s11      96.0
##  5 s11     162. 
##  6 s11     130. 
##  7 s11     129. 
##  8 s11     142. 
##  9 s11     125. 
## 10 s11     137. 
## # … with 90 more rows
…
