Workshop: Datenverarbeitung mit R
…
## # A tibble: 6 x 10
##   carat cut       color clarity depth table price     x     y     z
##   <dbl> <ord>     <ord> <ord>   <dbl> <dbl> <int> <dbl> <dbl> <dbl>
## 1 0.23  Ideal     E     SI2      61.5    55   326  3.95  3.98  2.43
## 2 0.21  Premium   E     SI1      59.8    61   326  3.89  3.84  2.31
## 3 0.23  Good      E     VS1      56.9    65   327  4.05  4.07  2.31
## 4 0.290 Premium   I     VS2      62.4    58   334  4.2   4.23  2.63
## 5 0.31  Good      J     SI2      63.3    58   335  4.34  4.35  2.75
## 6 0.24  Very Good J     VVS2     62.8    57   336  3.94  3.96  2.48

Der Data Frame sieht gut sortiert aus. Jede Zeile beschreibt einen Diamanten und in jeder Spalte finden wir einen Wert, der den jeweiligen Diamanten beschreibt. Wir haben jedoch drei Spalten namens x, y, z, die die Maße des Diamanten enthalten (Länge, Breite, Tiefe). Je nachdem, was wir mit dem Data Frame vorhaben, würde es uns vielleicht mehr bringen, eine Spalte mit allen Maßen zu haben und eine weitere Spalte, die uns sagt, um welches Maß es sich handelt:

diamonds %>% pivot_longer(cols = c(x, y, z), names_to = "measure", values_to = "values")

## # A tibble: 161,820 x 9
##    carat cut     color clarity depth table price measure values
##    <dbl> <ord>   <ord> <ord>   <dbl> <dbl> <int> <chr>    <dbl>
##  1 0.23  Ideal   E     SI2      61.5    55   326 x         3.95
##  2 0.23  Ideal   E     SI2      61.5    55   326 y         3.98
##  3 0.23  Ideal   E     SI2      61.5    55   326 z         2.43
##  4 0.21  Premium E     SI1      59.8    61   326 x         3.89
##  5 0.21  Premium E     SI1      59.8    61   326 y         3.84
##  6 0.21  Premium E     SI1      59.8    61   326 z         2.31
##  7 0.23  Good    E     VS1      56.9    65   327 x         4.05
##  8 0.23  Good    E     VS1      56.9    65   327 y         4.07
##  9 0.23  Good    E     VS1      56.9    65   327 z         2.31
## 10 0.290 Premium I     VS2      62.4    58   334 x         4.2 
## # … with 161,810 more rows

Der Befehl pivot_longer() wandelt den Data Frame in das so genannte “lange Format” um. Am wichtigsten sind die folgenden drei Argumente:

cols: alle Spalten, die umwandelt werden sollen

values_to: der Name der neuen Spalte mit den Werten

names_to: der Name der neuen Spalte mit den ehemaligen Spaltennamen

Aufgabe: Versuchen Sie den Data Frame vdata in das lange Format umzuwandeln. Es soll hinterher eine Spalte mit den Formantwerten geben und eine Spalte, die angibt, ob es sich um F1 oder F2 handelt:

vdata %>% pivot_longer(cols = c(F1, F2), names_to = "formant", values_to = "value")

## # A tibble: 5,964 x 10
##        X     Y   dur V     Tense Cons  Rate  Subj  formant value
##    <dbl> <dbl> <dbl> <chr> <chr> <chr> <chr> <chr> <chr>   <int>
##  1  53.0  4.36 107.  %     -     P     a     bk    F1        313
##  2  53.0  4.36 107.  %     -     P     a     bk    F2        966
##  3  53.6  3.65  86.0 I     -     T     a     bk    F1        322
##  4  53.6  3.65  86.0 I     -     T     a     bk    F2       2058
##  5  55.1 10.4  123.  Y     -     K     a     bk    F1        336
##  6  55.1 10.4  123.  Y     -     K     a     bk    F2       1186
##  7  53.1  4.75 119.  E     -     T     a     bk    F1        693
##  8  53.1  4.75 119.  E     -     T     a     bk    F2       2149
##  9  52.7  6.46 196.  Y     +     K     a     bk    F1        269
## 10  52.7  6.46 196.  Y     +     K     a     bk    F2       2008
## # … with 5,954 more rows
…
Das macht deutlich, weshalb wir pivot_longer() brauchen: Wir wollen lieber eine Spalte haben, die uns die Woche angibt, und eine Spalte, die den Rank in den Billboard Charts enthält.

billboard %>% pivot_longer(cols = starts_with("wk"), 
                           names_to = "week", 
                           values_to = "rank",
                           names_prefix = "wk",
                           values_drop_na = TRUE)

## # A tibble: 5,307 x 5
##    artist  track                   date.entered week   rank
##    <chr>   <chr>                   <date>       <chr> <dbl>
##  1 2 Pac   Baby Don't Cry (Keep... 2000-02-26   1        87
##  2 2 Pac   Baby Don't Cry (Keep... 2000-02-26   2        82
##  3 2 Pac   Baby Don't Cry (Keep... 2000-02-26   3        72
##  4 2 Pac   Baby Don't Cry (Keep... 2000-02-26   4        77
##  5 2 Pac   Baby Don't Cry (Keep... 2000-02-26   5        87
##  6 2 Pac   Baby Don't Cry (Keep... 2000-02-26   6        94
##  7 2 Pac   Baby Don't Cry (Keep... 2000-02-26   7        99
##  8 2Ge+her The Hardest Part Of ... 2000-09-02   1        91
##  9 2Ge+her The Hardest Part Of ... 2000-09-02   2        87
## 10 2Ge+her The Hardest Part Of ... 2000-09-02   3        92
## # … with 5,297 more rows
…
Häufig ist es sinnvoll, Spalten umzubenennen und ihnen vernünftige Namen zu geben. Hierzu benutzen wir rename(). Das wäre z.B. sinnvoll bei den Spalten x, y, z im Data Frame diamonds (und anschließend führen wir wieder das Pivoting durch):

diamonds %>% dplyr::rename(laenge = x, breite = y, tiefe = z) %>% 
  pivot_longer(cols = c(laenge, breite, tiefe), names_to = "measure", values_to = "value")

## # A tibble: 161,820 x 9
##    carat cut     color clarity depth table price measure value
##    <dbl> <ord>   <ord> <ord>   <dbl> <dbl> <int> <chr>   <dbl>
##  1 0.23  Ideal   E     SI2      61.5    55   326 laenge   3.95
##  2 0.23  Ideal   E     SI2      61.5    55   326 breite   3.98
##  3 0.23  Ideal   E     SI2      61.5    55   326 tiefe    2.43
##  4 0.21  Premium E     SI1      59.8    61   326 laenge   3.89
##  5 0.21  Premium E     SI1      59.8    61   326 breite   3.84
##  6 0.21  Premium E     SI1      59.8    61   326 tiefe    2.31
##  7 0.23  Good    E     VS1      56.9    65   327 laenge   4.05
##  8 0.23  Good    E     VS1      56.9    65   327 breite   4.07
##  9 0.23  Good    E     VS1      56.9    65   327 tiefe    2.31
## 10 0.290 Premium I     VS2      62.4    58   334 laenge   4.2 
## # … with 161,810 more rows
…
